%YAML 1.1
%TAG !u! tag:unity3d.com,2011:
--- !u!74 &7400000
AnimationClip:
  m_ObjectHideFlags: 0
  m_PrefabParentObject: {fileID: 0}
  m_PrefabInternal: {fileID: 0}
  m_Name: Punch
  serializedVersion: 6
  m_Legacy: 0
  m_Compressed: 0
  m_UseHighQualityCurve: 1
  m_RotationCurves: []
  m_CompressedRotationCurves: []
  m_EulerCurves: []
  m_PositionCurves: []
  m_ScaleCurves: []
  m_FloatCurves: []
  m_PPtrCurves:
  - curve:
    - time: 0
      value: {fileID: 21300000, guid: f975a14eb8cb8424081245543295f050, type: 3}
    - time: 0.083333336
      value: {fileID: 21300002, guid: f975a14eb8cb8424081245543295f050, type: 3}
    - time: 0.26666668
      value: {fileID: 21300004, guid: f975a14eb8cb8424081245543295f050, type: 3}
    - time: 0.35
      value: {fileID: 21300006, guid: f975a14eb8cb8424081245543295f050, type: 3}
    - time: 0.45
      value: {fileID: 21300008, guid: f975a14eb8cb8424081245543295f050, type: 3}
    - time: 0.6166667
      value: {fileID: 21300010, guid: f975a14eb8cb8424081245543295f050, type: 3}
    - time: 0.71666664
      value: {fileID: 21300012, guid: f975a14eb8cb8424081245543295f050, type: 3}
    - time: 0.8
      value: {fileID: 21300014, guid: f975a14eb8cb8424081245543295f050, type: 3}
    - time: 0.8833333
      value: {fileID: 21300016, guid: f975a14eb8cb8424081245543295f050, type: 3}
    - time: 1.0666667
      value: {fileID: 21300018, guid: f975a14eb8cb8424081245543295f050, type: 3}
    - time: 1.15
      value: {fileID: 21300020, guid: f975a14eb8cb8424081245543295f050, type: 3}
    - time: 1.25
      value: {fileID: 21300022, guid: f975a14eb8cb8424081245543295f050, type: 3}
    - time: 1.4166666
      value: {fileID: 21300024, guid: f975a14eb8cb8424081245543295f050, type: 3}
    - time: 1.5
      value: {fileID: 21300026, guid: f975a14eb8cb8424081245543295f050, type: 3}
    - time: 1.6
      value: {fileID: 21300028, guid: f975a14eb8cb8424081245543295f050, type: 3}
    - time: 1.7666667
      value: {fileID: 21300030, guid: f975a14eb8cb8424081245543295f050, type: 3}
    - time: 1.8666667
      value: {fileID: 21300032, guid: f975a14eb8cb8424081245543295f050, type: 3}
    - time: 1.95
      value: {fileID: 21300034, guid: f975a14eb8cb8424081245543295f050, type: 3}
    - time: 2.0333333
      value: {fileID: 21300036, guid: f975a14eb8cb8424081245543295f050, type: 3}
    - time: 2.2333333
      value: {fileID: 21300038, guid: f975a14eb8cb8424081245543295f050, type: 3}
    - time: 2.3
      value: {fileID: 21300040, guid: f975a14eb8cb8424081245543295f050, type: 3}
    - time: 2.4166667
      value: {fileID: 21300042, guid: f975a14eb8cb8424081245543295f050, type: 3}
    - time: 2.5666666
      value: {fileID: 21300044, guid: f975a14eb8cb8424081245543295f050, type: 3}
    - time: 2.6833334
      value: {fileID: 21300046, guid: f975a14eb8cb8424081245543295f050, type: 3}
    - time: 2.7666667
      value: {fileID: 21300048, guid: f975a14eb8cb8424081245543295f050, type: 3}
    - time: 2.95
      value: {fileID: 21300050, guid: f975a14eb8cb8424081245543295f050, type: 3}
    - time: 3.0333333
      value: {fileID: 21300052, guid: f975a14eb8cb8424081245543295f050, type: 3}
    - time: 3.1
      value: {fileID: 21300054, guid: f975a14eb8cb8424081245543295f050, type: 3}
    - time: 3.3
      value: {fileID: 21300056, guid: f975a14eb8cb8424081245543295f050, type: 3}
    - time: 3.3666666
      value: {fileID: 21300058, guid: f975a14eb8cb8424081245543295f050, type: 3}
    - time: 3.4833333
      value: {fileID: 21300060, guid: f975a14eb8cb8424081245543295f050, type: 3}
    - time: 3.5666666
      value: {fileID: 21300062, guid: f975a14eb8cb8424081245543295f050, type: 3}
    - time: 3.75
      value: {fileID: 21300064, guid: f975a14eb8cb8424081245543295f050, type: 3}
    - time: 3.8333333
      value: {fileID: 21300066, guid: f975a14eb8cb8424081245543295f050, type: 3}
    - time: 3.9
      value: {fileID: 21300068, guid: f975a14eb8cb8424081245543295f050, type: 3}
    - time: 4.1
      value: {fileID: 21300070, guid: f975a14eb8cb8424081245543295f050, type: 3}
    - time: 4.1666665
      value: {fileID: 21300072, guid: f975a14eb8cb8424081245543295f050, type: 3}
    - time: 4.25
      value: {fileID: 21300074, guid: f975a14eb8cb8424081245543295f050, type: 3}
    - time: 4.4333334
      value: {fileID: 21300076, guid: f975a14eb8cb8424081245543295f050, type: 3}
    - time: 4.516667
      value: {fileID: 21300078, guid: f975a14eb8cb8424081245543295f050, type: 3}
    - time: 4.633333
      value: {fileID: 21300080, guid: f975a14eb8cb8424081245543295f050, type: 3}
    - time: 4.7
      value: {fileID: 21300082, guid: f975a14eb8cb8424081245543295f050, type: 3}
    - time: 4.9
      value: {fileID: 21300084, guid: f975a14eb8cb8424081245543295f050, type: 3}
    - time: 4.9666667
      value: {fileID: 21300086, guid: f975a14eb8cb8424081245543295f050, type: 3}
    - time: 5.05
      value: {fileID: 21300088, guid: f975a14eb8cb8424081245543295f050, type: 3}
    - time: 5.233333
      value: {fileID: 21300090, guid: f975a14eb8cb8424081245543295f050, type: 3}
    - time: 5.3166666
      value: {fileID: 21300092, guid: f975a14eb8cb8424081245543295f050, type: 3}
    - time: 5.4333334
      value: {fileID: 21300094, guid: f975a14eb8cb8424081245543295f050, type: 3}
    - time: 5.5833335
      value: {fileID: 21300096, guid: f975a14eb8cb8424081245543295f050, type: 3}
    - time: 5.7
      value: {fileID: 21300098, guid: f975a14eb8cb8424081245543295f050, type: 3}
    - time: 5.766667
      value: {fileID: 21300100, guid: f975a14eb8cb8424081245543295f050, type: 3}
    - time: 5.9666667
      value: {fileID: 21300102, guid: f975a14eb8cb8424081245543295f050, type: 3}
    - time: 6.05
      value: {fileID: 21300104, guid: f975a14eb8cb8424081245543295f050, type: 3}
    - time: 6.133333
      value: {fileID: 21300106, guid: f975a14eb8cb8424081245543295f050, type: 3}
    - time: 6.233333
      value: {fileID: 21300108, guid: f975a14eb8cb8424081245543295f050, type: 3}
    - time: 6.4
      value: {fileID: 21300110, guid: f975a14eb8cb8424081245543295f050, type: 3}
    - time: 6.5
      value: {fileID: 21300112, guid: f975a14eb8cb8424081245543295f050, type: 3}
    - time: 6.5833335
      value: {fileID: 21300114, guid: f975a14eb8cb8424081245543295f050, type: 3}
    - time: 6.75
      value: {fileID: 21300116, guid: f975a14eb8cb8424081245543295f050, type: 3}
    - time: 6.85
      value: {fileID: 21300118, guid: f975a14eb8cb8424081245543295f050, type: 3}
    - time: 6.9333334
      value: {fileID: 21300120, guid: f975a14eb8cb8424081245543295f050, type: 3}
    - time: 7.116667
      value: {fileID: 21300122, guid: f975a14eb8cb8424081245543295f050, type: 3}
    - time: 7.2
      value: {fileID: 21300124, guid: f975a14eb8cb8424081245543295f050, type: 3}
    - time: 7.2833333
      value: {fileID: 21300126, guid: f975a14eb8cb8424081245543295f050, type: 3}
    - time: 7.383333
      value: {fileID: 21300128, guid: f975a14eb8cb8424081245543295f050, type: 3}
    - time: 7.55
      value: {fileID: 21300130, guid: f975a14eb8cb8424081245543295f050, type: 3}
    - time: 7.65
      value: {fileID: 21300132, guid: f975a14eb8cb8424081245543295f050, type: 3}
    - time: 7.733333
      value: {fileID: 21300134, guid: f975a14eb8cb8424081245543295f050, type: 3}
    - time: 7.9166665
      value: {fileID: 21300136, guid: f975a14eb8cb8424081245543295f050, type: 3}
    - time: 8
      value: {fileID: 21300138, guid: f975a14eb8cb8424081245543295f050, type: 3}
    attribute: m_Sprite
    path: 
    classID: 114
    script: {fileID: -765806418, guid: f70555f144d8491a825f0804e09c671c, type: 3}
  m_SampleRate: 60
  m_WrapMode: 0
  m_Bounds:
    m_Center: {x: 0, y: 0, z: 0}
    m_Extent: {x: 0, y: 0, z: 0}
  m_ClipBindingConstant:
    genericBindings:
    - serializedVersion: 2
      path: 0
      attribute: 2015549526
      script: {fileID: -765806418, guid: f70555f144d8491a825f0804e09c671c, type: 3}
      typeID: 114
      customType: 0
      isPPtrCurve: 1
    pptrCurveMapping:
    - {fileID: 21300000, guid: f975a14eb8cb8424081245543295f050, type: 3}
    - {fileID: 21300002, guid: f975a14eb8cb8424081245543295f050, type: 3}
    - {fileID: 21300004, guid: f975a14eb8cb8424081245543295f050, type: 3}
    - {fileID: 21300006, guid: f975a14eb8cb8424081245543295f050, type: 3}
    - {fileID: 21300008, guid: f975a14eb8cb8424081245543295f050, type: 3}
    - {fileID: 21300010, guid: f975a14eb8cb8424081245543295f050, type: 3}
    - {fileID: 21300012, guid: f975a14eb8cb8424081245543295f050, type: 3}
    - {fileID: 21300014, guid: f975a14eb8cb8424081245543295f050, type: 3}
    - {fileID: 21300016, guid: f975a14eb8cb8424081245543295f050, type: 3}
    - {fileID: 21300018, guid: f975a14eb8cb8424081245543295f050, type: 3}
    - {fileID: 21300020, guid: f975a14eb8cb8424081245543295f050, type: 3}
    - {fileID: 21300022, guid: f975a14eb8cb8424081245543295f050, type: 3}
    - {fileID: 21300024, guid: f975a14eb8cb8424081245543295f050, type: 3}
    - {fileID: 21300026, guid: f975a14eb8cb8424081245543295f050, type: 3}
    - {fileID: 21300028, guid: f975a14eb8cb8424081245543295f050, type: 3}
    - {fileID: 21300030, guid: f975a14eb8cb8424081245543295f050, type: 3}
    - {fileID: 21300032, guid: f975a14eb8cb8424081245543295f050, type: 3}
    - {fileID: 21300034, guid: f975a14eb8cb8424081245543295f050, type: 3}
    - {fileID: 21300036, guid: f975a14eb8cb8424081245543295f050, type: 3}
    - {fileID: 21300038, guid: f975a14eb8cb8424081245543295f050, type: 3}
    - {fileID: 21300040, guid: f975a14eb8cb8424081245543295f050, type: 3}
    - {fileID: 21300042, guid: f975a14eb8cb8424081245543295f050, type: 3}
    - {fileID: 21300044, guid: f975a14eb8cb8424081245543295f050, type: 3}
    - {fileID: 21300046, guid: f975a14eb8cb8424081245543295f050, type: 3}
    - {fileID: 21300048, guid: f975a14eb8cb8424081245543295f050, type: 3}
    - {fileID: 21300050, guid: f975a14eb8cb8424081245543295f050, type: 3}
    - {fileID: 21300052, guid: f975a14eb8cb8424081245543295f050, type: 3}
    - {fileID: 21300054, guid: f975a14eb8cb8424081245543295f050, type: 3}
    - {fileID: 21300056, guid: f975a14eb8cb8424081245543295f050, type: 3}
    - {fileID: 21300058, guid: f975a14eb8cb8424081245543295f050, type: 3}
    - {fileID: 21300060, guid: f975a14eb8cb8424081245543295f050, type: 3}
    - {fileID: 21300062, guid: f975a14eb8cb8424081245543295f050, type: 3}
    - {fileID: 21300064, guid: f975a14eb8cb8424081245543295f050, type: 3}
    - {fileID: 21300066, guid: f975a14eb8cb8424081245543295f050, type: 3}
    - {fileID: 21300068, guid: f975a14eb8cb8424081245543295f050, type: 3}
    - {fileID: 21300070, guid: f975a14eb8cb8424081245543295f050, type: 3}
    - {fileID: 21300072, guid: f975a14eb8cb8424081245543295f050, type: 3}
    - {fileID: 21300074, guid: f975a14eb8cb8424081245543295f050, type: 3}
    - {fileID: 21300076, guid: f975a14eb8cb8424081245543295f050, type: 3}
    - {fileID: 21300078, guid: f975a14eb8cb8424081245543295f050, type: 3}
    - {fileID: 21300080, guid: f975a14eb8cb8424081245543295f050, type: 3}
    - {fileID: 21300082, guid: f975a14eb8cb8424081245543295f050, type: 3}
    - {fileID: 21300084, guid: f975a14eb8cb8424081245543295f050, type: 3}
    - {fileID: 21300086, guid: f975a14eb8cb8424081245543295f050, type: 3}
    - {fileID: 21300088, guid: f975a14eb8cb8424081245543295f050, type: 3}
    - {fileID: 21300090, guid: f975a14eb8cb8424081245543295f050, type: 3}
    - {fileID: 21300092, guid: f975a14eb8cb8424081245543295f050, type: 3}
    - {fileID: 21300094, guid: f975a14eb8cb8424081245543295f050, type: 3}
    - {fileID: 21300096, guid: f975a14eb8cb8424081245543295f050, type: 3}
    - {fileID: 21300098, guid: f975a14eb8cb8424081245543295f050, type: 3}
    - {fileID: 21300100, guid: f975a14eb8cb8424081245543295f050, type: 3}
    - {fileID: 21300102, guid: f975a14eb8cb8424081245543295f050, type: 3}
    - {fileID: 21300104, guid: f975a14eb8cb8424081245543295f050, type: 3}
    - {fileID: 21300106, guid: f975a14eb8cb8424081245543295f050, type: 3}
    - {fileID: 21300108, guid: f975a14eb8cb8424081245543295f050, type: 3}
    - {fileID: 21300110, guid: f975a14eb8cb8424081245543295f050, type: 3}
    - {fileID: 21300112, guid: f975a14eb8cb8424081245543295f050, type: 3}
    - {fileID: 21300114, guid: f975a14eb8cb8424081245543295f050, type: 3}
    - {fileID: 21300116, guid: f975a14eb8cb8424081245543295f050, type: 3}
    - {fileID: 21300118, guid: f975a14eb8cb8424081245543295f050, type: 3}
    - {fileID: 21300120, guid: f975a14eb8cb8424081245543295f050, type: 3}
    - {fileID: 21300122, guid: f975a14eb8cb8424081245543295f050, type: 3}
    - {fileID: 21300124, guid: f975a14eb8cb8424081245543295f050, type: 3}
    - {fileID: 21300126, guid: f975a14eb8cb8424081245543295f050, type: 3}
    - {fileID: 21300128, guid: f975a14eb8cb8424081245543295f050, type: 3}
    - {fileID: 21300130, guid: f975a14eb8cb8424081245543295f050, type: 3}
    - {fileID: 21300132, guid: f975a14eb8cb8424081245543295f050, type: 3}
    - {fileID: 21300134, guid: f975a14eb8cb8424081245543295f050, type: 3}
    - {fileID: 21300136, guid: f975a14eb8cb8424081245543295f050, type: 3}
    - {fileID: 21300138, guid: f975a14eb8cb8424081245543295f050, type: 3}
  m_AnimationClipSettings:
    serializedVersion: 2
    m_AdditiveReferencePoseClip: {fileID: 0}
    m_AdditiveReferencePoseTime: 0
    m_StartTime: 0
    m_StopTime: 8.016666
    m_OrientationOffsetY: 0
    m_Level: 0
    m_CycleOffset: 0
    m_HasAdditiveReferencePose: 0
    m_LoopTime: 1
    m_LoopBlend: 0
    m_LoopBlendOrientation: 0
    m_LoopBlendPositionY: 0
    m_LoopBlendPositionXZ: 0
    m_KeepOriginalOrientation: 0
    m_KeepOriginalPositionY: 1
    m_KeepOriginalPositionXZ: 0
    m_HeightFromFeet: 0
    m_Mirror: 0
  m_EditorCurves: []
  m_EulerEditorCurves: []
  m_HasGenericRootTransform: 0
  m_HasMotionFloatCurves: 0
  m_GenerateMotionCurves: 0
  m_Events: []
